ms0101
ms0102
ms0103
ms0104
ms0105
ms0106
ms0107
ms0108
ms0109
ms0110
ms0111
ms0112
ms0113
ms0114
ms0115
ms0116
ms0117
ms0118
ms0119
ms0120
ms0121
ms0122
ms0123
ms0124
ms0125
ms0126
ms0127
ms0128
ms0129
ms0130
ms0131
ms0132
ms0133
ms0134
ms0135
ms0136
ms0137
ms0138
ms0139
ms0140
ms0141
ms0143
ms0144
ms0145
ms0201
ms0202
ms0203
ms0204
ms0205
ms0206
ms0207
ms0208
ms0209
ms0210
ms0211
ms0212
ms0213
ms0214
ms0215
ms0216
ms0217
ms0218
ms0219
ms0220
ms0221
ms0222
ms0223
ms0224
ms0225
ms0226
ms0227
ms0228
ms0229
ms0230
ms0231
ms0232
ms0233
ms0234
ms0235
ms0236
ms0237
ms0238
ms0239
ms0240
ms0241
ms0242
ms0243
ms0244
ms0245
ms0301
ms0302
ms0303
ms0304
ms0305
ms0306
ms0307
ms0308
ms0309
ms0310
ms0311
ms0312
ms0313
ms0314
ms0315
ms0316
ms0317
ms0318
ms0319
ms0320
ms0321
ms0322
ms0323
ms0324
ms0325
ms0326
ms0327
ms0328
ms0329
ms0330
ms0331
ms0332
ms0333
ms0334
ms0335
ms0336
ms0337
ms0338
ms0339
ms0340
ms0341
ms0342
ms0343
ms0344
ms0345
ms0401
ms0402
ms0403
ms0404
ms0405
ms0406
ms0407
ms0408
ms0409
ms0410
ms0411
ms0412
ms0413
ms0414
ms0415
ms0416
ms0417
ms0418
ms0419
ms0420
ms0421
ms0422
ms0423
ms0424
ms0425
ms0426
ms0427
ms0428
ms0429
ms0430
ms0431
ms0432
ms0433
ms0434
ms0435
ms0436
ms0437
ms0438
ms0439
ms0440
ms0441
ms0442
ms0443
ms0444
ms0445
ms0501
ms0502
ms0503
ms0504
ms0505
ms0506
ms0507
ms0508
ms0509
ms0510
ms0511
ms0512
ms0513
ms0514
ms0515
ms0516
ms0517
ms0518
ms0519
ms0520
ms0521
ms0522
ms0523
ms0524
ms0525
ms0526
ms0527
ms0528
ms0529
ms0530
ms0531
ms0532
ms0533
ms0534
ms0535
ms0536
ms0537
ms0538
ms0539
ms0540
ms0541
ms0542
ms0543
ms0544
ms0545
ms0601
ms0602
ms0603
ms0604
ms0605
ms0606
ms0607
ms0608
ms0610
ms0611
ms0612
ms0613
ms0614
ms0615
ms0616
ms0617
ms0618
ms0619
ms0620
ms0621
ms0622
ms0623
ms0624
ms0625
ms0626
ms0627
ms0628
ms0629
ms0630
ms0631
ms0632
ms0633
ms0634
ms0635
ms0636
ms0637
ms0638
ms0639
ms0640
ms0641
ms0642
ms0643
ms0644
ms0645
ms0701
ms0702
ms0703
ms0704
ms0705
ms0706
ms0707
ms0708
ms0709
ms0710
ms0711
ms0712
ms0713
ms0714
ms0715
ms0716
ms0717
ms0718
ms0719
ms0720
ms0721
ms0722
ms0723
ms0724
ms0725
ms0726
ms0727
ms0728
ms0729
ms0730
ms0731
ms0732
ms0733
ms0734
ms0735
ms0736
ms0737
ms0738
ms0739
ms0740
ms0741
ms0742
ms0743
ms0744
ms0745
ms0801
ms0802
ms0803
ms0804
ms0805
ms0806
ms0807
ms0808
ms0809
ms0810
ms0811
ms0812
ms0813
ms0814
ms0815
ms0816
ms0817
ms0818
ms0819
ms0820
ms0821
ms0822
ms0823
ms0824
ms0825
ms0826
ms0827
ms0828
ms0829
ms0830
ms0831
ms0832
ms0833
ms0834
ms0835
ms0836
ms0837
ms0838
ms0839
ms0840
ms0841
ms0842
ms0843
ms0844
ms0845
ms0901
ms0902
ms0903
ms0904
ms0905
ms0906
ms0907
ms0908
ms0909
ms0910
ms0911
ms0912
ms0913
ms0914
ms0915
ms0916
ms0917
ms0918
ms0919
ms0920
ms0921
ms0922
ms0923
ms0924
ms0925
ms0926
ms0927
ms0928
ms0929
ms0930
ms0931
ms0932
ms0933
ms0934
ms0935
ms0936
ms0937
ms0938
ms0939
ms0940
ms0941
ms0942
ms0943
ms0944
ms0945
ms1001
ms1002
ms1003
ms1004
ms1005
ms1006
ms1007
ms1008
ms1009
ms1010
ms1011
ms1012
ms1013
ms1014
ms1015
ms1016
ms1017
ms1018
ms1019
ms1020
ms1021
ms1022
ms1023
ms1024
ms1025
ms1026
ms1027
ms1028
ms1029
ms1030
ms1031
ms1032
ms1033
ms1034
ms1035
ms1036
ms1037
ms1038
ms1039
ms1040
ms1041
ms1042
ms1043
ms1044
ms1045
ms1101
ms1102
ms1103
ms1104
ms1105
ms1106
ms1107
ms1108
ms1109
ms1110
ms1111
ms1112
ms1113
ms1114
ms1115
ms1116
ms1117
ms1118
ms1119
ms1120
ms1121
ms1122
ms1123
ms1124
ms1125
ms1126
ms1127
ms1128
ms1129
ms1130
ms1131
ms1132
ms1133
ms1134
ms1135
ms1136
ms1137
ms1138
ms1139
ms1140
ms1141
ms1142
ms1143
ms1144
ms1145
ms1201
ms1202
ms1203
ms1204
ms1205
ms1206
ms1207
ms1208
ms1209
ms1210
ms1211
ms1212
ms1213
ms1214
ms1215
ms1216
ms1217
ms1218
ms1219
ms1220
ms1221
ms1222
ms1223
ms1224
ms1225
ms1226
ms1227
ms1228
ms1229
ms1230
ms1231
ms1232
ms1233
ms1234
ms1235
ms1236
ms1237
ms1238
ms1239
ms1240
ms1241
ms1242
ms1243
ms1244
ms1245
ms1301
ms1302
ms1303
ms1304
ms1305
ms1306
ms1307
ms1308
ms1309
ms1310
ms1311
ms1312
ms1313
ms1314
ms1315
ms1316
ms1317
ms1318
ms1319
ms1320
ms1321
ms1322
ms1323
ms1324
ms1325
ms1326
ms1327
ms1328
ms1329
ms1330
ms1331
ms1332
ms1333
ms1334
ms1335
ms1336
ms1337
ms1338
ms1339
ms1340
ms1341
ms1342
ms1343
ms1344
ms1345
