stated.log,2
%{SYSLOGTIMESTAMP:timestamp} \[%{INT:pid}\]: %{USERNAME:node_id}: Checking for mode transition,
%{SYSLOGTIMESTAMP:timestamp} \[%{INT:pid}\]: %{USERNAME:node_id}: CtrlEvent: %{WORD:stated_ctrlevent},
"%{SYSLOGTIMESTAMP:timestamp} \[%{INT:pid}\]: %{USERNAME:node_id}: RESET done, bootwhat returns %{WORD:stated_bootwhat_opmode},%{INT:stated_bootwhat_return}",
%{SYSLOGTIMESTAMP:timestamp} \[%{INT:pid}\]: %{USERNAME:node_id}: Sending apod,
%{SYSLOGTIMESTAMP:timestamp} \[%{INT:pid}\]: %{USERNAME:node_id}: BootWhat says %{INT:stated_bootwhat_return} \(mode %{WORD:stated_bootwhat_opmode}\),
%{SYSLOGTIMESTAMP:timestamp} \[%{INT:pid}\]: Invalid transition for node %{USERNAME:node_id} from %{WORD:stated_prev_opmode}\/%{WORD:stated_prev_state} to %{WORD:stated_next_state},
%{SYSLOGTIMESTAMP:timestamp} \[%{INT:pid}\]: %{USERNAME:node_id}: Mode change %{WORD:stated_prev_opmode} => %{WORD:stated_next_opmode} %{WORD:stated_forced},
"%{SYSLOGTIMESTAMP:timestamp} \[%{INT:pid}\]: %{WORD:stated_head}: %{USERNAME:node_id} in %{INT:stated_next_time}, queue=%{INT:stated_queue_length}",
"%{SYSLOGTIMESTAMP:timestamp} \[%{INT:pid}\]: OBJTYPE=\'%{WORD:stated_objtype}\', OBJNAME=\'%{USERNAME:node_id}\', EVENTTYPE=\'%{WORD:stated_eventype}\'",
%{SYSLOGTIMESTAMP:timestamp} \[%{INT:pid}\]: Node %{USERNAME:node_id} has timed out in state %{WORD:stated_prev_opmode}\/%{WORD:stated_prev_state} - %{WORD:stated_timeout_action} requested,
%{SYSLOGTIMESTAMP:timestamp} \[%{INT:pid}\]: Node %{USERNAME:node_id} has timed out in state %{WORD:stated_prev_opmode}\/%{WORD:stated_prev_state},
%{SYSLOGTIMESTAMP:timestamp} \[%{INT:pid}\]: Node %{USERNAME:node_id} has timed out too many times!,
%{SYSLOGTIMESTAMP:timestamp} \[%{INT:pid}\]: %{USERNAME:node_id}: %{WORD:stated_prev_opmode}/%{WORD:stated_prev_mode} => %{WORD:stated_next_opmode}/%{WORD:stated_next_state},
"%{SYSLOGTIMESTAMP:timestamp} \[%{INT:pid}\]: %{WORD:stated_head}: %{USERNAME:node_id} in %{INT:stated_next_time}, queue=%{INT:stated_queue_length}",
"{SYSLOGTIMESTAMP:timestamp} \[%{INT:pid}\]: %{WORD:stated_queue_operation}: %{USERNAME:node_id} in %{INT:stated_next_time}, queue=%{INT:stated_queue_length}",
%{SYSLOGTIMESTAMP:timestamp} \[%{INT:pid}\]: %{USERNAME:node_id}: Ignored spurious %{WORD:stated_transition} transition,
%{SYSLOGTIMESTAMP:timestamp} \[%{INT:pid}\]: %{USERNAME:node_id}: Clearing reload info,
%{SYSLOGTIMESTAMP:timestamp} \[%{INT:pid}\]: %{USERNAME:node_id}: Released from \[Experiment: %{WORD:emulab_pid}\/%{WORD:emulab_eid}\],
%{SYSLOGTIMESTAMP:timestamp} \[%{INT:pid}\]: %{USERNAME:node_id}: %{WORD:stated_operation} %{WORD:stated_success},
%{SYSLOGTIMESTAMP:timestamp} \[%{INT:pid}\]: Rebooting nodes: %{GREEDYDATA:node_ids},
%{SYSLOGTIMESTAMP:timestamp} \[%{INT:pid}\]: Performed %{WORD:stated_operation} for %{USERNAME:node_id},
"%{SYSLOGTIMESTAMP:timestamp} \[%{INT:pid}\]: Command: %{USERNAME:node_id}, %{WORD:stated_operation} \(attempt %{INT:stated_attempt}\)",
%{SYSLOGTIMESTAMP:timestamp} \[%{INT:pid}\]: Invalid mode transition for %{USERNAME:node_id} from %{WORD:stated_prev_opmode}\/%{WORD:stated_prev_state} to %{WORD:stated_next_opmode},
"%{SYSLOGTIMESTAMP:timestamp} \[%{INT:pid}\]: %{USERNAME:node_id}: Command %{WORD:stated_operation}, retry #%{INT:stated_attempt}",
%{SYSLOGTIMESTAMP:timestamp} \[%{INT:pid}\]: Node %{USERNAME:node_id} timed out %{INT:stated_number_of_times} times in %{WORD:stated_prev_state},